…
Attaching package: ‘terra’

The following object is masked from ‘package:tidyr’:

    extract

The following object is masked from ‘package:patchwork’:

    area

The following object is masked from ‘package:arrow’:

    buffer

# A tibble: 31 × 3
     ano   mes doy  
   <int> <int> <chr>
 1  2020     8 214  
 2  2020     8 223  
 3  2020     8 224  
 4  2020     8 225  
 5  2020     8 226  
 6  2020     8 227  
 7  2020     8 228  
 8  2020     8 229  
 9  2020     8 230  
10  2020     8 231  
# ℹ 21 more rows
…
Attaching package: ‘terra’

The following object is masked from ‘package:tidyr’:

    extract

The following object is masked from ‘package:patchwork’:

    area

The following object is masked from ‘package:arrow’:

    buffer

# A tibble: 31 × 3
     ano   mes doy  
   <int> <int> <chr>
 1  2020     8 214  
 2  2020     8 223  
 3  2020     8 224  
 4  2020     8 225  
 5  2020     8 226  
 6  2020     8 227  
 7  2020     8 228  
 8  2020     8 229  
 9  2020     8 230  
10  2020     8 231  
# ℹ 21 more rows
…
